[
  {
    "biomeName": "GENERIC",
    "targetBodyTemp": "37",
    "tempUnit": "CELSIUS",
    "flags": [
      "MODERATE_BIOME"
    ]
  },
  {
    "biomeName": "OCEAN",
    "targetBodyTemp": "35.8",
    "tempUnit": "CELSIUS",
    "flags": [
      "MODERATE_BIOME",
      "OCEAN"
    ]
  },
  {
    "biomeName": "DEEP_OCEAN",
    "targetBodyTemp": "35.6",
    "tempUnit": "CELSIUS",
    "flags": [
      "COLD_BIOME",
      "OCEAN"
    ]
  },
  {
    "biomeName": "FROZEN_OCEAN",
    "targetBodyTemp": "31",
    "tempUnit": "CELSIUS",
    "flags": [
      "SNOWY_BIOME",
      "OCEAN"
    ]
  },
  {
    "biomeName": "DEEP_FROZEN_OCEAN",
    "targetBodyTemp": "31",
    "tempUnit": "CELSIUS",
    "flags": [
      "SNOWY_BIOME",
      "OCEAN"
    ]
  },
  {
    "biomeName": "COLD_OCEAN",
    "targetBodyTemp": "31",
    "tempUnit": "CELSIUS",
    "flags": [
      "SNOWY_BIOME",
      "OCEAN"
    ]
  },
  {
    "biomeName": "DEEP_COLD_OCEAN",
    "targetBodyTemp": "31",
    "tempUnit": "CELSIUS",
    "flags": [
      "SNOWY_BIOME",
      "OCEAN"
    ]
  },
  {
    "biomeName": "LUKEWARM_OCEAN",
    "targetBodyTemp": "38.6",
    "tempUnit": "CELSIUS",
    "flags": [
      "WARM_BIOME",
      "OCEAN"
    ]
  },
  {
    "biomeName": "DEEP_LUKEWARM_OCEAN",
    "targetBodyTemp": "38",
    "tempUnit": "CELSIUS",
    "flags": [
      "MODERATE_BIOME",
      "OCEAN"
    ]
  },
  {
    "biomeName": "WARM_OCEAN",
    "targetBodyTemp": "38",
    "tempUnit": "CELSIUS",
    "flags": [
      "WARM_BIOME",
      "OCEAN"
    ]
  },
  {
    "biomeName": "DEEP_WARM_OCEAN",
    "targetBodyTemp": "38",
    "tempUnit": "CELSIUS",
    "flags": [
      "WARM_BIOME",
      "OCEAN"
    ]
  },
  {
    "biomeName": "RIVER",
    "targetBodyTemp": "36.8",
    "tempUnit": "CELSIUS",
    "flags": [
      "MODERATE_BIOME"
    ]
  },
  {
    "biomeName": "FROZEN_RIVER",
    "targetBodyTemp": "31",
    "tempUnit": "CELSIUS",
    "flags": [
      "SNOWY_BIOME"
    ]
  },
  {
    "biomeName": "BEACH",
    "targetBodyTemp": "37",
    "tempUnit": "CELSIUS",
    "flags": [
      "MODERATE_BIOME"
    ]
  },
  {
    "biomeName": "STONE_SHORE",
    "targetBodyTemp": "35.6",
    "tempUnit": "CELSIUS",
    "flags": [
      "COLD_BIOME"
    ]
  },
  {
    "biomeName": "SNOWY_BEACH",
    "targetBodyTemp": "33.4",
    "tempUnit": "CELSIUS",
    "flags": [
      "SNOWY_BIOME"
    ]
  },
  {
    "biomeName": "FOREST",
    "targetBodyTemp": "37",
    "tempUnit": "CELSIUS",
    "flags": [
      "MODERATE_BIOME"
    ]
  },
  {
    "biomeName": "WOODED_HILLS",
    "targetBodyTemp": "36",
    "tempUnit": "CELSIUS",
    "flags": [
      "MODERATE_BIOME"
    ]
  },
  {
    "biomeName": "FLOWER_FOREST",
    "targetBodyTemp": "37",
    "tempUnit": "CELSIUS",
    "flags": [
      "MODERATE_BIOME"
    ]
  },
  {
    "biomeName": "BIRCH_FOREST",
    "targetBodyTemp": "37",
    "tempUnit": "CELSIUS",
    "flags": [
      "MODERATE_BIOME"
    ]
  },
  {
    "biomeName": "BIRCH_FOREST_HILLS",
    "targetBodyTemp": "36",
    "tempUnit": "CELSIUS",
    "flags": [
      "MODERATE_BIOME"
    ]
  },
  {
    "biomeName": "TALL_BIRCH_FOREST",
    "targetBodyTemp": "36.6",
    "tempUnit": "CELSIUS",
    "flags": [
      "MODERATE_BIOME"
    ]
  },
  {
    "biomeName": "TALL_BIRCH_HILLS",
    "targetBodyTemp": "36.2",
    "tempUnit": "CELSIUS",
    "flags": [
      "MODERATE_BIOME"
    ]
  },
  {
    "biomeName": "DARK_FOREST",
    "targetBodyTemp": "36.4",
    "tempUnit": "CELSIUS",
    "flags": [
      "MODERATE_BIOME"
    ]
  },
  {
    "biomeName": "DARK_FOREST_HILLS",
    "targetBodyTemp": "36",
    "tempUnit": "CELSIUS",
    "flags": [
      "MODERATE_BIOME"
    ]
  },
  {
    "biomeName": "JUNGLE",
    "targetBodyTemp": "39.6",
    "tempUnit": "CELSIUS",
    "flags": [
      "WARM_BIOME"
    ]
  },
  {
    "biomeName": "JUNGLE_HILLS",
    "targetBodyTemp": "39.4",
    "tempUnit": "CELSIUS",
    "flags": [
      "WARM_BIOME"
    ]
  },
  {
    "biomeName": "MODIFIED_JUNGLE",
    "targetBodyTemp": "39.2",
    "tempUnit": "CELSIUS",
    "flags": [
      "WARM_BIOME"
    ]
  },
  {
    "biomeName": "JUNGLE_EDGE",
    "targetBodyTemp": "39.4",
    "tempUnit": "CELSIUS",
    "flags": [
      "WARM_BIOME"
    ]
  },
  {
    "biomeName": "MODIFIED_JUNGLE_EDGE",
    "targetBodyTemp": "39",
    "tempUnit": "CELSIUS",
    "flags": [
      "WARM_BIOME"
    ]
  },
  {
    "biomeName": "BAMBOO_JUNGLE",
    "targetBodyTemp": "39.4",
    "tempUnit": "CELSIUS",
    "flags": [
      "WARM_BIOME"
    ]
  },
  {
    "biomeName": "BAMBOO_JUNGLE_HILLS",
    "targetBodyTemp": "39",
    "tempUnit": "CELSIUS",
    "flags": [
      "WARM_BIOME"
    ]
  },
  {
    "biomeName": "TAIGA",
    "targetBodyTemp": "34.8",
    "tempUnit": "CELSIUS",
    "flags": [
      "COLD_BIOME"
    ]
  },
  {
    "biomeName": "TAIGA_HILLS",
    "targetBodyTemp": "33.8",
    "tempUnit": "CELSIUS",
    "flags": [
      "SNOWY_BIOME"
    ]
  },
  {
    "biomeName": "TAIGA_MOUNTAINS",
    "targetBodyTemp": "33",
    "tempUnit": "CELSIUS",
    "flags": [
      "COLD_BIOME"
    ]
  },
  {
    "biomeName": "SNOWY_TAIGA",
    "targetBodyTemp": "33",
    "tempUnit": "CELSIUS",
    "flags": [
      "SNOWY_BIOME"
    ]
  },
  {
    "biomeName": "SNOWY_TAIGA_HILLS",
    "targetBodyTemp": "32.6",
    "tempUnit": "CELSIUS",
    "flags": [
      "SNOWY_BIOME"
    ]
  },
  {
    "biomeName": "SNOWY_TAIGA_MOUNTAINS",
    "targetBodyTemp": "31.6",
    "tempUnit": "CELSIUS",
    "flags": [
      "SNOWY_BIOME"
    ]
  },
  {
    "biomeName": "GIANT_TREE_TAIGA",
    "targetBodyTemp": "34.8",
    "tempUnit": "CELSIUS",
    "flags": [
      "COLD_BIOME"
    ]
  },
  {
    "biomeName": "GIANT_TREE_TAIGA_HILLS",
    "targetBodyTemp": "34.6",
    "tempUnit": "CELSIUS",
    "flags": [
      "COLD_BIOME"
    ]
  },
  {
    "biomeName": "GIANT_SPRUCE_TAIGA",
    "targetBodyTemp": "34.8",
    "tempUnit": "CELSIUS",
    "flags": [
      "COLD_BIOME"
    ]
  },
  {
    "biomeName": "GIANT_SPRUCE_TAIGA_HILLS",
    "targetBodyTemp": "34.2",
    "tempUnit": "CELSIUS",
    "flags": [
      "COLD_BIOME"
    ]
  },
  {
    "biomeName": "MUSHROOM_FIELDS",
    "targetBodyTemp": "37",
    "tempUnit": "CELSIUS",
    "flags": [
      "MODERATE_BIOME"
    ]
  },
  {
    "biomeName": "MUSHROOM_FIELD_SHORE",
    "targetBodyTemp": "36.6",
    "tempUnit": "CELSIUS",
    "flags": [
      "MODERATE_BIOME"
    ]
  },
  {
    "biomeName": "SWAMP",
    "targetBodyTemp": "36.6",
    "tempUnit": "CELSIUS",
    "flags": [
      "MODERATE_BIOME"
    ]
  },
  {
    "biomeName": "SWAMP_HILLS",
    "targetBodyTemp": "36.2",
    "tempUnit": "CELSIUS",
    "flags": [
      "MODERATE_BIOME"
    ]
  },
  {
    "biomeName": "SAVANNA",
    "targetBodyTemp": "38.4",
    "tempUnit": "CELSIUS",
    "flags": [
      "WARM_BIOME"
    ]
  },
  {
    "biomeName": "SAVANNA_PLATEAU",
    "targetBodyTemp": "38.2",
    "tempUnit": "CELSIUS",
    "flags": [
      "MODERATE_BIOME"
    ]
  },
  {
    "biomeName": "SHATTERED_SAVANNA",
    "targetBodyTemp": "38",
    "tempUnit": "CELSIUS",
    "flags": [
      "MODERATE_BIOME"
    ]
  },
  {
    "biomeName": "SHATTERED_SAVANNA_PLATEAU",
    "targetBodyTemp": "38",
    "tempUnit": "CELSIUS",
    "flags": [
      "MODERATE_BIOME"
    ]
  },
  {
    "biomeName": "PLAINS",
    "targetBodyTemp": "37",
    "tempUnit": "CELSIUS",
    "flags": [
      "MODERATE_BIOME"
    ]
  },
  {
    "biomeName": "SUNFLOWER_PLAINS",
    "targetBodyTemp": "37",
    "tempUnit": "CELSIUS",
    "flags": [
      "MODERATE_BIOME"
    ]
  },
  {
    "biomeName": "DESERT",
    "targetBodyTemp": "41",
    "tempUnit": "CELSIUS",
    "flags": [
      "DRY_BIOME"
    ]
  },
  {
    "biomeName": "DESERT_HILLS",
    "targetBodyTemp": "40",
    "tempUnit": "CELSIUS",
    "flags": [
      "DRY_BIOME"
    ]
  },
  {
    "biomeName": "DESERT_LAKES",
    "targetBodyTemp": "40",
    "tempUnit": "CELSIUS",
    "flags": [
      "DRY_BIOME"
    ]
  },
  {
    "biomeName": "SNOWY_TUNDRA",
    "targetBodyTemp": "33",
    "tempUnit": "CELSIUS",
    "flags": [
      "SNOWY_BIOME"
    ]
  },
  {
    "biomeName": "SNOWY_MOUNTAINS",
    "targetBodyTemp": "31",
    "tempUnit": "CELSIUS",
    "flags": [
      "SNOWY_BIOME"
    ]
  },
  {
    "biomeName": "ICE_SPIKES",
    "targetBodyTemp": "31",
    "tempUnit": "CELSIUS",
    "flags": [
      "SNOWY_BIOME"
    ]
  },
  {
    "biomeName": "MOUNTAINS",
    "targetBodyTemp": "32.6",
    "tempUnit": "CELSIUS",
    "flags": [
      "COLD_BIOME"
    ]
  },
  {
    "biomeName": "WOODED_MOUNTAINS",
    "targetBodyTemp": "33",
    "tempUnit": "CELSIUS",
    "flags": [
      "COLD_BIOME"
    ]
  },
  {
    "biomeName": "GRAVELLY_MOUNTAINS",
    "targetBodyTemp": "33.4",
    "tempUnit": "CELSIUS",
    "flags": [
      "COLD_BIOME"
    ]
  },
  {
    "biomeName": "MODIFIED_GRAVELLY_MOUNTAINS",
    "targetBodyTemp": "33.4",
    "tempUnit": "CELSIUS",
    "flags": [
      "COLD_BIOME"
    ]
  },
  {
    "biomeName": "MOUNTAIN_EDGE",
    "targetBodyTemp": "33.8",
    "tempUnit": "CELSIUS",
    "flags": [
      "SNOWY_BIOME"
    ]
  },
  {
    "biomeName": "BADLANDS",
    "targetBodyTemp": "39.8",
    "tempUnit": "CELSIUS",
    "flags": [
      "DRY_BIOME"
    ]
  },
  {
    "biomeName": "BADLANDS_PLATEAU",
    "targetBodyTemp": "39.4",
    "tempUnit": "CELSIUS",
    "flags": [
      "DRY_BIOME"
    ]
  },
  {
    "biomeName": "MODIFIED_BADLANDS_PLATEAU",
    "targetBodyTemp": "39.4",
    "tempUnit": "CELSIUS",
    "flags": [
      "DRY_BIOME"
    ]
  },
  {
    "biomeName": "WOODED_BADLANDS_PLATEAU",
    "targetBodyTemp": "38.8",
    "tempUnit": "CELSIUS",
    "flags": [
      "DRY_BIOME"
    ]
  },
  {
    "biomeName": "MODIFIED_WOODED_BADLANDS_PLATEAU",
    "targetBodyTemp": "39",
    "tempUnit": "CELSIUS",
    "flags": [
      "DRY_BIOME"
    ]
  },
  {
    "biomeName": "ERODED_BADLANDS",
    "targetBodyTemp": "39",
    "tempUnit": "CELSIUS",
    "flags": [
      "DRY_BIOME"
    ]
  },
  {
    "biomeName": "THE_END",
    "targetBodyTemp": "35",
    "tempUnit": "CELSIUS",
    "flags": [
      "COLD_BIOME",
      "THE_END"
    ]
  },
  {
    "biomeName": "SMALL_END_ISLANDS",
    "targetBodyTemp": "35",
    "tempUnit": "CELSIUS",
    "flags": [
      "COLD_BIOME",
      "THE_END"
    ]
  },
  {
    "biomeName": "END_MIDLANDS",
    "targetBodyTemp": "35",
    "tempUnit": "CELSIUS",
    "flags": [
      "COLD_BIOME",
      "THE_END"
    ]
  },
  {
    "biomeName": "END_HIGHLANDS",
    "targetBodyTemp": "34.6",
    "tempUnit": "CELSIUS",
    "flags": [
      "COLD_BIOME",
      "THE_END"
    ]
  },
  {
    "biomeName": "END_BARRENS",
    "targetBodyTemp": "34.6",
    "tempUnit": "CELSIUS",
    "flags": [
      "COLD_BIOME",
      "THE_END"
    ]
  },
  {
    "biomeName": "THE_VOID",
    "targetBodyTemp": "34.6",
    "tempUnit": "CELSIUS",
    "flags": [
      "COLD_BIOME",
      "THE_VOID"
    ]
  },
  {
    "biomeName": "NETHER_WASTES",
    "targetBodyTemp": "41",
    "tempUnit": "CELSIUS",
    "flags": [
      "NETHER"
    ]
  },
  {
    "biomeName": "SOUL_SAND_VALLEY",
    "targetBodyTemp": "39.5",
    "tempUnit": "CELSIUS",
    "flags": [
      "NETHER"
    ]
  },
  {
    "biomeName": "CRIMSON_FOREST",
    "targetBodyTemp": "40",
    "tempUnit": "CELSIUS",
    "flags": [
      "NETHER"
    ]
  },
  {
    "biomeName": "WARPED_FOREST",
    "targetBodyTemp": "39",
    "tempUnit": "CELSIUS",
    "flags": [
      "NETHER"
    ]
  },
  {
    "biomeName": "BASALT_DELTAS",
    "targetBodyTemp": "41",
    "tempUnit": "CELSIUS",
    "flags": [
      "NETHER"
    ]
  }
]
